…
<!-- end list -->

``` r
qpcr <- calculate_DCT(df = qpcr, 
                      hkg = c("Rpl13a"), 
                      sample_col = "Sample", 
                      gene_col = "Gene")
```

    ## Joining, by = "Sample"

    ## # A tibble: 44 x 8
    ## # Groups:   Sample [11]
    ##    Sample Gene      CT Genotype hkg    CT_hkg    DCT      RE
    ##    <chr>  <chr>  <dbl> <chr>    <chr>   <dbl>  <dbl>   <dbl>
    ##  1 WT_1   Tnf     33.3 WT       Rpl13a   27.1 -6.19  0.0136 
    ##  2 WT_1   Il1b    34.0 WT       Rpl13a   27.1 -6.91  0.00831
    ##  3 WT_1   Sdf1    26.8 WT       Rpl13a   27.1  0.276 1.21   
    ##  4 WT_1   Cx3cl1  33.2 WT       Rpl13a   27.1 -6.09  0.0147 
    ##  5 WT_2   Tnf     31.9 WT       Rpl13a   24.0 -7.82  0.00442
    ##  6 WT_2   Il1b    30.6 WT       Rpl13a   24.0 -6.59  0.0104 
    ##  7 WT_2   Sdf1    25.1 WT       Rpl13a   24.0 -1.05  0.483  
    ##  8 WT_2   Cx3cl1  29.5 WT       Rpl13a   24.0 -5.47  0.0226 
    ##  9 WT_3   Tnf     32.1 WT       Rpl13a   23.3 -8.76  0.00231
    ## 10 WT_3   Il1b    31.0 WT       Rpl13a   23.3 -7.68  0.00487
    ## # ... with 34 more rows
…
