Example workflow qPCRanalysis
…
gene_col : name of the gene column

It will pass a dataframe with three added columns:

CT_hkg : average CT value of housekeeping genes

DCT : Delta CT values

RE : relative expression to hkg

qpcr <- calculate_DCT(df = qpcr, hkg = c("Rab35", "Rpl13a", "PSma3"), sample_col = "Sample", gene_col = "Gene")

## Joining, by = "Sample"

## # A tibble: 242 x 7
## # Groups:   Sample [2]
##    Sample Replicate Gene     CT CT_hkg   DCT           RE
##    <chr>  <chr>     <chr> <dbl>  <dbl> <dbl>        <dbl>
##  1 WT     1         Tnf    33.3   13.0 -20.3  0.000000761
##  2 WT     1         Il1b   34.0   13.0 -21.0  0.000000463
##  3 WT     1         Ccl3   NA     13.0  NA   NA          
##  4 WT     1         Ccl4   NA     13.0  NA   NA          
##  5 WT     1         Ccl5   32.4   13.0 -19.5  0.00000136 
##  6 WT     1         Ccl6   29.7   13.0 -16.8  0.00000904 
##  7 WT     1         Ccl7   34.6   13.0 -21.7  0.000000302
##  8 WT     1         Ccl8   30.5   13.0 -17.5  0.00000535 
##  9 WT     1         Ccl9   29.7   13.0 -16.7  0.00000918 
## 10 WT     1         Ccl12  32.3   13.0 -19.4  0.00000145 
## # ... with 232 more rows
…
